Deep (dish) Data Dive
…
jared$answer <- as.integer(jared$answer)
str(jared$answer)

##  int [1:375] 10 8 6 2 0 10 8 6 2 0 ...

Once the answers are converted to integers, a calculation is done to find the average rating for each pizza place:

jared <- mutate(jared,Weighted_Rating = answer*votes)

(Jared_Average <- jared %>%
    group_by(place) %>%
    summarise(avg_score = sum(Weighted_Rating)/sum(votes)))

## # A tibble: 56 x 2
##    place                       avg_score
##    <chr>                           <dbl>
##  1 5 Boroughs Pizza                 7.33
##  2 Artichoke Basille's Pizza        8   
##  3 Arturo's                         7.43
##  4 Bella Napoli                     7.07
##  5 Ben's of SoHo 14th Street        4.8 
##  6 Ben's of SoHo Spring Street      6.44
##  7 Big Slice Pizza                  6.27
##  8 Bleecker Street Pizza            8.29
##  9 Bravo Pizza                    NaN   
## 10 Cavallo's Pizza                  7.27
## # ... with 46 more rows
…
Datafiniti Cleaning

Since there werent any NA values in the datafiniti dataset, we simply removed duplicate values and changed the name of province" to State Code to align with the column name in the region dataset.

# Remove duplicates

datafiniti_unique <- unique(datafiniti)
datafiniti_unique # 2,285 unique observations

## # A tibble: 2,285 x 10
##    name  address city  country province latitude longitude categories
##    <chr> <chr>   <chr> <chr>   <chr>       <dbl>     <dbl> <chr>     
##  1 Shot~ 4203 E~ Sher~ US      AR           34.8     -92.2 Pizza,Res~
##  2 Sauc~ 25 E C~ Phoe~ US      AZ           33.5    -112.  Pizza,Piz~
##  3 Mios~ 3703 P~ Cinc~ US      OH           39.1     -84.4 Restauran~
##  4 Hung~ 30495 ~ Madi~ US      MI           42.5     -83.1 Pizza,Car~
##  5 Spar~ 3600 E~ Balt~ US      MD           39.3     -76.6 Pizza,Ame~
##  6 La V~ 1834 E~ Berk~ US      CA           37.9    -122.  Pizza Pla~
##  7 Bric~ 4819 K~ Tall~ US      FL           30.5     -84.2 Pizza Pla~
##  8 Carr~ 4061 2~ Gran~ US      MI           42.9     -85.6 Restauran~
##  9 Dome~ 146 N ~ Glen~ US      CA           34.1    -118.  Pizza,Res~
## 10 Litt~ 965 N ~ El P~ US      TX           31.9    -107.  Restauran~
## # ... with 2,275 more rows, and 2 more variables: price_range_min <dbl>,
## #   price_range_max <dbl>
…
Shrinking the list into unique values

# unique categories w/ count

datafiniti_cat %>% 
  group_by(Category) %>% 
  summarize(count = n()) %>% 
  arrange(desc(count))

## # A tibble: 308 x 2
##    Category                           count
##    <chr>                              <int>
##  1 Pizza Place                         2286
##  2 Restaurant                          1104
##  3 Pizza                                655
##  4 Restaurants                          650
##  5 Italian Restaurant                   225
##  6 Italian                               71
##  7 Caterers                              49
##  8 Italian Restaurants                   47
##  9 American restaurants                  45
## 10 Italian Restaurant and Pizza Place    43
## # ... with 298 more rows

Repeating steps 2-5, separating this time on the word and. This allowed us to further separate categories such as Italian Restaurant and Pizza Place into their own values.

## # A tibble: 312 x 2
##    Category            count
##    <chr>               <int>
##  1 Pizza Place          2286
##  2 Restaurant           1104
##  3 Pizza                 655
##  4 Restaurants           650
##  5 Italian Restaurant    225
##  6 "Pizza Place "         81
##  7 Italian                71
##  8 " Pizza Place"         53
##  9 Caterers               49
## 10 Italian Restaurants    47
## # ... with 302 more rows
…
# Min / max by state

datafiniti_unique %>% 
  group_by(State) %>% 
  summarize(Avg_max_price = mean(price_range_max)) %>% 
  arrange(desc(Avg_max_price))

## # A tibble: 44 x 2
##    State         Avg_max_price
##    <chr>                 <dbl>
##  1 Connecticut            40  
##  2 South Dakota           32.5
##  3 Iowa                   31  
##  4 Alabama                30  
##  5 Nebraska               30  
##  6 Arizona                29.9
##  7 West Virginia          29.3
##  8 Maryland               29.2
##  9 Louisiana              29.1
## 10 Oregon                 29.1
## # ... with 34 more rows

datafiniti_unique %>% 
  group_by(State) %>% 
  summarize(Avg_min_price = mean(price_range_min)) %>% 
  arrange(Avg_min_price)

## # A tibble: 44 x 2
##    State          Avg_min_price
##    <chr>                  <dbl>
##  1 Alaska                  0   
##  2 Delaware                0   
##  3 Hawaii                  0   
##  4 Montana                 0   
##  5 New Jersey              0   
##  6 North Dakota            0   
##  7 Nevada                  1.25
##  8 South Carolina          1.85
##  9 Arkansas                1.92
## 10 Kansas                  2.08
## # ... with 34 more rows
…
